[gd_resource type="SpatialMaterial" load_steps=2 format=2]

[ext_resource path="res://resources/assets/textures/red_grid_texture.png" type="Texture" id=1]


[resource]
flags_world_triplanar = true
albedo_texture = ExtResource( 1 )
uv1_triplanar = true
uv2_triplanar = true
