[gd_scene load_steps=2 format=2]

[sub_resource type="ConcavePolygonShape" id=1]
data = PoolVector3Array( 3.25, 2.5, 6.25, 3.25, 0, 3.5833, 3.25, 0, 6.25, 3.25, 0, -4.5833, 3.25, 2.5, -6.25, 3.25, 0, -6.25, 3.25, 2.5, 6.25, 3.25, 0, -4.5833, 3.25, 0, 3.5833, 3.25, 0, -4.5833, 3.25, 2.5, 6.25, 3.25, 2.5, -6.25, -3.25, 0, -6.25, -3.25, 2.5, 6.25, -3.25, 0, 6.25, -3.25, 0, -6.25, -3.25, 2.5, -6.25, -3.25, 2.5, 6.25, 3.25, 0, -6.25, -3.25, 2.5, -6.25, -3.25, 0, -6.25, 3.25, 0, -6.25, 3.25, 2.5, -6.25, -3.25, 2.5, -6.25, -3.25, 0, 6.25, 3.25, 2.5, 6.25, 3.25, 0, 6.25, -3.25, 0, 6.25, -3.25, 2.5, 6.25, 3.25, 2.5, 6.25, 3.25, 2.5, -6.25, -3.25, 2.5, -7.45, -3.25, 2.5, -6.25, 3.25, 2.5, -6.25, 3.25, 2.5, -7.45, -3.25, 2.5, -7.45, 3.25, 2.5, -7.45, -3.25, 3.8, -5.45, -3.25, 2.5, -7.45, 3.25, 2.5, -7.45, 3.25, 3.8, -5.45, -3.25, 3.8, -5.45, 3.25, 3.8, -5.45, -3.25, 7.1, -2.25, -3.25, 3.8, -5.45, 3.25, 3.8, -5.45, 3.25, 7.1, -2.25, -3.25, 7.1, -2.25, 3.25, 7.1, -2.25, 0, 10.1, -2.25, -3.25, 7.1, -2.25, -3.25, 6.5, 6.25, 3.25, 2.5, 6.25, -3.25, 2.5, 6.25, 3.25, 2.9333, 6.25, 3.25, 6.5, 6.25, 3.25, 5.0667, 6.25, -3.25, 6.5, 6.25, 3.25, 2.9333, 6.25, 3.25, 2.5, 6.25, 3.25, 2.9333, 6.25, -3.25, 6.5, 6.25, 3.25, 6.5, 6.25, 3.25, 2.9333, -0.2167, 3.25, 2.5, -2.25, 3.25, 2.5, -0.2167, 3.25, 2.9333, -0.2167, 3.25, 2.9333, -2.25, 3.25, 2.5, -2.25, -3.25, 2.5, 6.25, -3.25, 6.5, -2.25, -3.25, 6.5, 6.25, -3.25, 2.5, 6.25, -3.25, 2.5, -2.25, -3.25, 6.5, -2.25, -3.25, 6.5, -2.25, -4.25, 6.5, 6.25, -3.25, 6.5, 6.25, -3.25, 6.5, -2.25, -4.25, 6.5, -2.25, -4.25, 6.5, 6.25, 4.25, 6.5, 6.25, 3.25, 6.5, 2.2167, 3.25, 6.5, 6.25, 3.25, 6.5, -0.2167, 4.25, 6.5, -2.25, 3.25, 6.5, -2.25, 4.25, 6.5, 6.25, 3.25, 6.5, -0.2167, 3.25, 6.5, 2.2167, 3.25, 6.5, -0.2167, 4.25, 6.5, 6.25, 4.25, 6.5, -2.25, 4.25, 6.5, 6.25, 3.25, 7.1, -2.25, 4.25, 6.5, -2.25, 4.25, 6.5, 6.25, 3.25, 7.1, 6.25, 3.25, 7.1, -2.25, -4.25, 6.5, -2.25, -3.25, 7.1, 6.25, -4.25, 6.5, 6.25, -4.25, 6.5, -2.25, -3.25, 7.1, -2.25, -3.25, 7.1, 6.25, -4.25, 6.5, -2.25, -3.25, 6.5, -2.25, -3.25, 7.1, -2.25, 3.25, 7.1, -2.25, 3.25, 6.5, -2.25, 4.25, 6.5, -2.25, 3.25, 6.5, 6.25, 3.25, 7.1, 6.25, 4.25, 6.5, 6.25, -4.25, 6.5, 6.25, -3.25, 7.1, 6.25, -3.25, 6.5, 6.25, 3.25, 7.1, -2.25, 3.25, 3.8, -5.45, 3.25, 2.5, -2.25, 3.25, 2.5, -7.45, 3.25, 2.5, -2.25, 3.25, 3.8, -5.45, -3.25, 2.5, -2.25, -3.25, 3.8, -5.45, -3.25, 7.1, -2.25, -3.25, 3.8, -5.45, -3.25, 2.5, -2.25, -3.25, 2.5, -7.45, -3.25, 0, 6.25, 3.25, 0, -6.25, -3.25, 0, -6.25, 3.25, 0, -4.5833, 3.25, 0, 6.25, 3.25, 0, 3.5833, -3.25, 0, 6.25, 3.25, 0, -4.5833, 3.25, 0, -6.25, 3.25, 0, -4.5833, -3.25, 0, 6.25, 3.25, 0, 6.25, -3.25, 7.1, 6.25, 0, 10.1, 6.25, 3.25, 7.1, 6.25, 3.25, 6.5, 6.25, -3.25, 7.1, 6.25, 3.25, 7.1, 6.25, 3.25, 6.5, 6.25, -3.25, 6.5, 6.25, -3.25, 7.1, 6.25, 3.25, 7.1, 6.25, 0, 10.1, -2.25, 3.25, 7.1, -2.25, 3.25, 7.1, 6.25, 0, 10.1, 6.25, 0, 10.1, -2.25, -3.25, 7.1, 6.25, 0, 10.1, -2.25, 0, 10.1, 6.25, -3.25, 7.1, 6.25, -3.25, 7.1, -2.25, 0, 10.1, -2.25, 4.05, 0, 3.5833, 3.25, 0, -4.5833, 3.25, 0, 3.5833, 3.25, 0, -4.5833, 4.05, 0, -2.9, 4.05, 0, -4.5833, 3.25, 0, -4.5833, 4.05, 0, 3.5833, 4.05, 0, -2.9, 4.05, 0, -4.5833, 3.25, 0.2, -4.5833, 3.25, 0, -4.5833, 4.05, 0, -4.5833, 4.05, 0.2, -4.5833, 3.25, 0.2, -4.5833, 4.05, 0.2, -4.5833, 3.25, 1, -2.8833, 3.25, 0.2, -4.5833, 4.05, 0.2, -4.5833, 4.05, 1, -2.8833, 3.25, 1, -2.8833, 4.05, 1, -2.8833, 3.25, 1, 3.6167, 3.25, 1, -2.8833, 4.05, 1, -2.8833, 4.05, 1, 3.6167, 3.25, 1, 3.6167, 4.05, 0, 3.5833, 3.25, 1, 3.6167, 4.05, 1, 3.6167, 4.05, 0, 3.5833, 3.25, 0, 3.5833, 3.25, 1, 3.6167, 4.05, 1, -2.8833, 4.05, 0, 3.5833, 4.05, 1, 3.6167, 4.05, 1, -2.8833, 4.05, 0, -2.9, 4.05, 0, 3.5833, 4.05, 0, -4.5833, 4.05, 1, -2.8833, 4.05, 0.2, -4.5833, 4.05, 0, -4.5833, 4.05, 0, -2.9, 4.05, 1, -2.8833, 3.25, 6.5, -0.2167, 3.25, 5.0667, -2.25, 3.25, 5.0667, -0.2167, 3.25, 6.5, -0.2167, 3.25, 6.5, -2.25, 3.25, 5.0667, -2.25, 3.25, 5.0667, -0.2167, 3.25, 2.9333, -2.25, 3.25, 2.9333, -0.2167, 3.25, 5.0667, -0.2167, 3.25, 5.0667, -2.25, 3.25, 2.9333, -2.25, 3.25, 6.5, 6.25, 3.25, 5.0667, 2.2167, 3.25, 5.0667, 6.25, 3.25, 6.5, 6.25, 3.25, 6.5, 2.2167, 3.25, 5.0667, 2.2167, 3.25, 6.5, 2.2167, 3.25, 5.0667, -0.2167, 3.25, 5.0667, 2.2167, 3.25, 6.5, 2.2167, 3.25, 6.5, -0.2167, 3.25, 5.0667, -0.2167, 3.25, 5.0667, 6.25, 3.25, 2.9333, 2.2167, 3.25, 2.9333, 6.25, 3.25, 5.0667, 6.25, 3.25, 5.0667, 2.2167, 3.25, 2.9333, 2.2167, 3.25, 5.0667, -0.2167, 4.25, 6.1667, 1, 3.25, 6.1667, 1, 3.25, 5.0667, -0.2167, 4.25, 5.0667, -0.2167, 4.25, 6.1667, 1, 3.25, 2.9333, 6.25, 3.25, 2.5, 2.2167, 3.25, 2.5, 6.25, 3.25, 2.9333, 6.25, 3.25, 2.9333, 2.2167, 3.25, 2.5, 2.2167, 3.25, 2.9333, 2.2167, 3.25, 2.5, -0.2167, 3.25, 2.5, 2.2167, 3.25, 2.9333, 2.2167, 3.25, 2.9333, -0.2167, 3.25, 2.5, -0.2167, 4.25, 5.0667, 2.2167, 4.25, 2.9333, -0.2167, 4.25, 2.9333, 2.2167, 4.25, 5.0667, 2.2167, 4.25, 5.0667, -0.2167, 4.25, 2.9333, -0.2167, 3.25, 2.9333, -0.2167, 4.25, 5.0667, -0.2167, 3.25, 5.0667, -0.2167, 3.25, 2.9333, -0.2167, 4.25, 2.9333, -0.2167, 4.25, 5.0667, -0.2167, 3.25, 2.9333, 2.2167, 4.25, 2.9333, -0.2167, 3.25, 2.9333, -0.2167, 3.25, 2.9333, 2.2167, 4.25, 2.9333, 2.2167, 4.25, 2.9333, -0.2167, 3.25, 5.0667, 2.2167, 4.25, 2.9333, 2.2167, 3.25, 2.9333, 2.2167, 3.25, 5.0667, 2.2167, 4.25, 5.0667, 2.2167, 4.25, 2.9333, 2.2167, 4.25, 5.0667, -0.2167, 4.25, 5.0667, 2.2167, 4.25, 6.1667, 1, 3.25, 6.1667, 1, 4.25, 5.0667, 2.2167, 3.25, 5.0667, 2.2167, 3.25, 6.1667, 1, 4.25, 6.1667, 1, 4.25, 5.0667, 2.2167, -1.2667, 9.0667, 7.2, -0.05, 10.1667, 6.2, -0.05, 10.1667, 7.2, -1.2667, 9.0667, 7.2, -1.2667, 9.0667, 6.2, -0.05, 10.1667, 6.2, 1.1667, 9.0667, 6.2, -1.2667, 6.9333, 6.2, 1.1667, 6.9333, 6.2, 1.1667, 9.0667, 6.2, -1.2667, 9.0667, 6.2, -1.2667, 6.9333, 6.2, -1.2667, 6.9333, 7.2, -1.2667, 9.0667, 6.2, -1.2667, 9.0667, 7.2, -1.2667, 6.9333, 7.2, -1.2667, 6.9333, 6.2, -1.2667, 9.0667, 6.2, 1.1667, 6.9333, 7.2, -1.2667, 6.9333, 6.2, -1.2667, 6.9333, 7.2, 1.1667, 6.9333, 7.2, 1.1667, 6.9333, 6.2, -1.2667, 6.9333, 6.2, 1.1667, 9.0667, 7.2, 1.1667, 6.9333, 6.2, 1.1667, 6.9333, 7.2, 1.1667, 9.0667, 7.2, 1.1667, 9.0667, 6.2, 1.1667, 6.9333, 6.2, -1.2667, 9.0667, 6.2, 1.1667, 9.0667, 6.2, -0.05, 10.1667, 6.2, -0.05, 10.1667, 7.2, 1.1667, 9.0667, 6.2, 1.1667, 9.0667, 7.2, -0.05, 10.1667, 7.2, -0.05, 10.1667, 6.2, 1.1667, 9.0667, 6.2, -1.2667, 9.0667, 7.2, -0.05, 10.1667, 7.2, 1.1667, 9.0667, 7.2, -1.2667, 9.0667, 7.2, 1.1667, 6.9333, 7.2, -1.2667, 6.9333, 7.2, -1.2667, 9.0667, 7.2, 1.1667, 9.0667, 7.2, 1.1667, 6.9333, 7.2, -0.1667, 5.4667, -2.8, 1.05, 6.5667, -5.1, 1.05, 6.5667, -2.8, -0.1667, 5.4667, -2.8, -0.1667, 5.4667, -5.1, 1.05, 6.5667, -5.1, 2.2667, 5.4667, -5.1, -0.1667, 4.1333, -5.1, 2.2667, 4.1333, -5.1, 2.2667, 5.4667, -5.1, -0.1667, 5.4667, -5.1, -0.1667, 4.1333, -5.1, 2.2667, 5.4667, -5.1, 2.2667, 4.1333, -5.1, 2.2667, 5.4667, -2.8, -0.1667, 5.4667, -2.8, -0.1667, 4.1333, -5.1, -0.1667, 5.4667, -5.1, -0.1667, 5.4667, -5.1, 2.2667, 5.4667, -5.1, 1.05, 6.5667, -5.1, 1.05, 6.5667, -2.8, 2.2667, 5.4667, -5.1, 2.2667, 5.4667, -2.8, 1.05, 6.5667, -2.8, 1.05, 6.5667, -5.1, 2.2667, 5.4667, -5.1, -0.1667, 5.4667, -2.8, 1.05, 6.5667, -2.8, 2.2667, 5.4667, -2.8, -0.1667, 5.4667, -2.8, 2.2667, 4.1333, -5.1, -0.1667, 4.1333, -5.1, -0.1667, 5.4667, -2.8, 2.2667, 5.4667, -2.8, 2.2667, 4.1333, -5.1 )

[node name="house2_hitbox" type="StaticBody"]
collision_layer = 17

[node name="CollisionShape" type="CollisionShape" parent="."]
shape = SubResource( 1 )
